{
  "schemaVersion": 1,
  "id": "sneaktweak",
  "version": "${version}",
  "name": "Sneak Tweak",
  "description": "Tweaks the sneak animation",
  "authors": [
    "Lortseam"
  ],
  "contact": {
    "email": "lortseam@gmail.com",
    "sources": "https://gitlab.com/Lortseam/sneak-tweak",
    "issues": "https://gitlab.com/Lortseam/sneak-tweak/-/issues"
  },
  "license": "Apache-2.0",
  "environment": "client",
  "entrypoints": {
    "client": [
      "me.lortseam.sneaktweak.SneakTweak"
    ]
  },
  "mixins": [
    {
      "config": "sneaktweak.mixins.json",
      "environment": "client"
    }
  ],
  "depends": {
    "java": ">=17",
    "fabricloader": ">=0.11.3",
    "fabric": "*",
    "completeconfig-base": "^2.0.0"
  }
}
